[GLOBAL]
SATELLITES=39444;40967;43017;24278;25544;27607
QTHFILE=Home.qth

[SINGLE_SAT]
SELECTED=39444

[EVENT_LIST]
SORT_COLUMN=5
SORT_ORDER=0

[LIST]
SORT_COLUMN=0
SORT_ORDER=0

[MAP]
SHOWTRACKS=2139062143;
